{
  "menu": [
    {
      "itemName": "Мед. учреждения",
      "dropItem": [
        {
          "dropItemName": "HTML",
          "href": "https://ru.wikipedia.org/wiki/HTML"
        },
        {
          "dropItemName": "CSS",
          "href": "https://ru.wikipedia.org/wiki/CSS"
        },
        {
          "dropItemName": "JS",
          "href": "https://ru.wikipedia.org/wiki/JavaScript"
        }
      ]
    },
      {
      "itemName": "Мед. учреждения",
      "dropItem": [
        {
          "dropItemName": "HTML",
          "href": "https://ru.wikipedia.org/wiki/HTML"
        },
        {
          "dropItemName": "CSS",
          "href": "https://ru.wikipedia.org/wiki/CSS"
        },
        {
          "dropItemName": "JS",
          "href": "https://ru.wikipedia.org/wiki/JavaScript"
        }
      ]
    },
      {
      "itemName": "Мед. учреждения",
      "dropItem": [
        {
          "dropItemName": "HTML",
          "href": "https://ru.wikipedia.org/wiki/HTML"
        },
        {
          "dropItemName": "CSS",
          "href": "https://ru.wikipedia.org/wiki/CSS"
        },
        {
          "dropItemName": "JS",
          "href": "https://ru.wikipedia.org/wiki/JavaScript"
        }
      ]
    }
  ]
}